%YAML 1.1
%TAG !u! tag:unity3d.com,2011:
--- !u!74 &7400000
AnimationClip:
  m_ObjectHideFlags: 0
  m_PrefabParentObject: {fileID: 0}
  m_PrefabInternal: {fileID: 0}
  m_Name: DropDownMessage
  serializedVersion: 6
  m_Legacy: 0
  m_Compressed: 0
  m_UseHighQualityCurve: 1
  m_RotationCurves: []
  m_CompressedRotationCurves: []
  m_PositionCurves: []
  m_ScaleCurves: []
  m_FloatCurves:
  - curve:
      serializedVersion: 2
      m_Curve:
      - time: 0
        value: 0
        inSlope: 0
        outSlope: 0
        tangentMode: 10
      - time: .25
        value: 0
        inSlope: 0
        outSlope: 0
        tangentMode: 10
      - time: .983333349
        value: 0
        inSlope: 0
        outSlope: 0
        tangentMode: 10
      - time: 1.36666667
        value: 0
        inSlope: 0
        outSlope: 0
        tangentMode: 10
      - time: 1.5333333
        value: 0
        inSlope: 0
        outSlope: 0
        tangentMode: 10
      - time: 2.0333333
        value: 0
        inSlope: 0
        outSlope: 0
        tangentMode: 10
      - time: 6.8166666
        value: 0
        inSlope: 0
        outSlope: 0
        tangentMode: 0
      - time: 7.0333333
        value: 0
        inSlope: 0
        outSlope: 0
        tangentMode: 0
      m_PreInfinity: 2
      m_PostInfinity: 2
    attribute: m_AnchoredPosition.x
    path: 
    classID: 224
    script: {fileID: 0}
  - curve:
      serializedVersion: 2
      m_Curve:
      - time: 0
        value: 40
        inSlope: 0
        outSlope: 0
        tangentMode: 10
      - time: .983333349
        value: 40
        inSlope: 0
        outSlope: 0
        tangentMode: 0
      - time: 1.20000005
        value: -38.3258514
        inSlope: -182.565399
        outSlope: -182.565399
        tangentMode: 10
      - time: 1.36666667
        value: -38.9303398
        inSlope: -5.02244663
        outSlope: -5.02244663
        tangentMode: 10
      - time: 1.5333333
        value: -40
        inSlope: -220.766754
        outSlope: -0
        tangentMode: 17
      - time: 3.8499999
        value: -40
        inSlope: 0
        outSlope: -0
        tangentMode: 21
      - time: 6.8166666
        value: -40
        inSlope: 0
        outSlope: 40
        tangentMode: 5
      - time: 7.0333333
        value: 41.6044884
        inSlope: 376.636047
        outSlope: 376.636047
        tangentMode: 10
      m_PreInfinity: 2
      m_PostInfinity: 2
    attribute: m_AnchoredPosition.y
    path: 
    classID: 224
    script: {fileID: 0}
  m_PPtrCurves: []
  m_SampleRate: 60
  m_WrapMode: 0
  m_Bounds:
    m_Center: {x: 0, y: 0, z: 0}
    m_Extent: {x: 0, y: 0, z: 0}
  m_ClipBindingConstant:
    genericBindings:
    - path: 0
      attribute: 538195251
      script: {fileID: 0}
      classID: 224
      customType: 0
      isPPtrCurve: 0
    - path: 0
      attribute: 1460864421
      script: {fileID: 0}
      classID: 224
      customType: 0
      isPPtrCurve: 0
    pptrCurveMapping: []
  m_AnimationClipSettings:
    serializedVersion: 2
    m_StartTime: 0
    m_StopTime: 7.0333333
    m_OrientationOffsetY: 0
    m_Level: 0
    m_CycleOffset: 0
    m_LoopTime: 0
    m_LoopBlend: 0
    m_LoopBlendOrientation: 0
    m_LoopBlendPositionY: 0
    m_LoopBlendPositionXZ: 0
    m_KeepOriginalOrientation: 0
    m_KeepOriginalPositionY: 1
    m_KeepOriginalPositionXZ: 0
    m_HeightFromFeet: 0
    m_Mirror: 0
  m_EditorCurves:
  - curve:
      serializedVersion: 2
      m_Curve:
      - time: 0
        value: 0
        inSlope: 0
        outSlope: 0
        tangentMode: 10
      - time: .25
        value: 0
        inSlope: 0
        outSlope: 0
        tangentMode: 10
      - time: .983333349
        value: 0
        inSlope: 0
        outSlope: 0
        tangentMode: 10
      - time: 1.36666667
        value: 0
        inSlope: 0
        outSlope: 0
        tangentMode: 10
      - time: 1.5333333
        value: 0
        inSlope: 0
        outSlope: 0
        tangentMode: 10
      - time: 2.0333333
        value: 0
        inSlope: 0
        outSlope: 0
        tangentMode: 10
      - time: 6.8166666
        value: 0
        inSlope: 0
        outSlope: 0
        tangentMode: 0
      - time: 7.0333333
        value: 0
        inSlope: 0
        outSlope: 0
        tangentMode: 0
      m_PreInfinity: 2
      m_PostInfinity: 2
    attribute: m_AnchoredPosition.x
    path: 
    classID: 224
    script: {fileID: 0}
  - curve:
      serializedVersion: 2
      m_Curve:
      - time: 0
        value: 40
        inSlope: 0
        outSlope: 0
        tangentMode: 10
      - time: .983333349
        value: 40
        inSlope: 0
        outSlope: 0
        tangentMode: 0
      - time: 1.20000005
        value: -38.3258514
        inSlope: -182.565399
        outSlope: -182.565399
        tangentMode: 10
      - time: 1.36666667
        value: -38.9303398
        inSlope: -5.02244663
        outSlope: -5.02244663
        tangentMode: 10
      - time: 1.5333333
        value: -40
        inSlope: -220.766754
        outSlope: -0
        tangentMode: 17
      - time: 3.8499999
        value: -40
        inSlope: 0
        outSlope: -0
        tangentMode: 21
      - time: 6.8166666
        value: -40
        inSlope: 0
        outSlope: 40
        tangentMode: 5
      - time: 7.0333333
        value: 41.6044884
        inSlope: 376.636047
        outSlope: 376.636047
        tangentMode: 10
      m_PreInfinity: 2
      m_PostInfinity: 2
    attribute: m_AnchoredPosition.y
    path: 
    classID: 224
    script: {fileID: 0}
  m_EulerEditorCurves: []
  m_HasGenericRootTransform: 0
  m_HasMotionFloatCurves: 0
  m_GenerateMotionCurves: 0
  m_Events: []
